{
  "locale": "cs-CZ",
  "Global": {
    "title": "Řemeslo jak vyšité",
    "vysivky": "Výšivky",
    "stehy": "Stehy",
    "jednoduche_stehy": "Jednoduché stehy",
    "ukoncovaci_stehy": "Ukončovací stehy",
    "zpevnujici_a_spojovaci_stehy": "Zpevňující a spojovací stehy",
    "ozdobne__geometricke__stehy": "Ozdobné (geometrické) stehy",
    "prolamovane_stehy": "Prolamované stehy",
    "vyrezove_stehy": "Výřezové stehy",
    "stehy_vysivane_pres_vrapy": "Stehy vyšívané přes vrapy",
    "plne_vysivani_ploche_a_vypoukle": "Plné vyšívání ploché a vypouklé",
    "stehy_podle_mista": "Stehy podle místa",
    "tkalcovske_techniky": "Tkalcovské techniky",
    "kraslice": "Kraslice",
    "lidove_ozdoby": "Lidové ozdoby",
    "kroje": "Kroje",
    "o_projektu": "O projektu",

    "instructionUrlPrefix": "navod",
    "searchLabel": "hledej"
  },
  "Location": {
    "locationTitle": "Lokace"
  },
  "Instruction": {
    "application": "Užití",
    "howto": "Jak na to"
  },
  "SearchBox": {
    "search": "hledej"
  }
}
